data bases
…
count: false
 
Three data frames
.panel1-unvotes-rotate[

```r
library(unvotes)
*un_roll_call_issues
```
]
 
.panel2-unvotes-rotate[

```
# A tibble: 5,281 x 3
    rcid short_name issue               
   <int> <chr>      <chr>               
 1  3372 me         Palestinian conflict
 2  3658 me         Palestinian conflict
 3  3692 me         Palestinian conflict
 4  2901 me         Palestinian conflict
 5  3020 me         Palestinian conflict
 6  3217 me         Palestinian conflict
 7  3298 me         Palestinian conflict
 8  3429 me         Palestinian conflict
 9  3558 me         Palestinian conflict
10  3625 me         Palestinian conflict
# … with 5,271 more rows
```
…
Three data frames
.panel1-unvotes-rotate[

```r
library(unvotes)
*un_roll_calls
```
]
 
.panel2-unvotes-rotate[

```
# A tibble: 5,429 x 9
    rcid session importantvote date       unres  amend  para short   descr      
   <int>   <dbl>         <dbl> <date>     <chr>  <dbl> <dbl> <chr>   <chr>      
 1     3       1             0 1946-01-01 R/1/66     1     0 AMENDM… "TO ADOPT …
 2     4       1             0 1946-01-02 R/1/79     0     0 SECURI… "TO ADOPT …
 3     5       1             0 1946-01-04 R/1/98     0     0 VOTING… "TO ADOPT …
 4     6       1             0 1946-01-04 R/1/1…     0     0 DECLAR… "TO ADOPT …
 5     7       1             0 1946-01-02 R/1/2…     1     0 GENERA… "TO ADOPT …
 6     8       1             0 1946-01-05 R/1/2…     1     0 ECOSOC… "TO ADOPT …
 7     9       1             0 1946-02-05 R/1/3…     0     0 POST-W… "TO OPEN T…
 8    10       1             0 1946-02-05 R/1/3…     1     1 U.N. M… "TO ADOPT …
 9    11       1             0 1946-02-05 R/1/3…     0     0 TRUSTE… "TO ADOPT …
10    12       1             0 1946-02-06 R/1/3…     1     1 COUNCI… "TO ADOPT …
# … with 5,419 more rows
```
…
Three data frames
.panel1-unvotes-rotate[

```r
library(unvotes)
*un_votes
```
]
 
.panel2-unvotes-rotate[

```
# A tibble: 738,764 x 4
    rcid country                  country_code vote 
   <int> <chr>                    <chr>        <fct>
 1     3 United States of America US           yes  
 2     3 Canada                   CA           no   
 3     3 Cuba                     CU           yes  
 4     3 Haiti                    HT           yes  
 5     3 Dominican Republic       DO           yes  
 6     3 Mexico                   MX           yes  
 7     3 Guatemala                GT           yes  
 8     3 Honduras                 HN           yes  
 9     3 El Salvador              SV           yes  
10     3 Nicaragua                NI           yes  
# … with 738,754 more rows
```
…
---

count: false

.panel1-issues-auto[

```r
*unvotes::un_roll_call_issues
```
]
 
.panel2-issues-auto[

```
# A tibble: 5,281 x 3
    rcid short_name issue               
   <int> <chr>      <chr>               
 1  3372 me         Palestinian conflict
 2  3658 me         Palestinian conflict
 3  3692 me         Palestinian conflict
 4  2901 me         Palestinian conflict
 5  3020 me         Palestinian conflict
 6  3217 me         Palestinian conflict
 7  3298 me         Palestinian conflict
 8  3429 me         Palestinian conflict
 9  3558 me         Palestinian conflict
10  3625 me         Palestinian conflict
# … with 5,271 more rows
```
…
---
count: false

.panel1-issues-auto[

```r
unvotes::un_roll_call_issues %>%
* select(-issue)
```
]
 
.panel2-issues-auto[

```
# A tibble: 5,281 x 2
    rcid short_name
   <int> <chr>     
 1  3372 me        
 2  3658 me        
 3  3692 me        
 4  2901 me        
 5  3020 me        
 6  3217 me        
 7  3298 me        
 8  3429 me        
 9  3558 me        
10  3625 me        
# … with 5,271 more rows
```
…
.panel1-issues-auto[

```r
unvotes::un_roll_call_issues %>%
  select(-issue) %>%
* mutate(is_true = 1)
```
]
 
.panel2-issues-auto[

```
# A tibble: 5,281 x 3
    rcid short_name is_true
   <int> <chr>        <dbl>
 1  3372 me               1
 2  3658 me               1
 3  3692 me               1
 4  2901 me               1
 5  3020 me               1
 6  3217 me               1
 7  3298 me               1
 8  3429 me               1
 9  3558 me               1
10  3625 me               1
# … with 5,271 more rows
```
…
.panel1-issues-auto[

```r
unvotes::un_roll_call_issues %>%
  select(-issue) %>%
  mutate(is_true = 1) %>%
* mutate(short_name = paste0("ind_issue_",
*                            short_name))
```
]
 
.panel2-issues-auto[

```
# A tibble: 5,281 x 3
    rcid short_name   is_true
   <int> <chr>          <dbl>
 1  3372 ind_issue_me       1
 2  3658 ind_issue_me       1
 3  3692 ind_issue_me       1
 4  2901 ind_issue_me       1
 5  3020 ind_issue_me       1
 6  3217 ind_issue_me       1
 7  3298 ind_issue_me       1
 8  3429 ind_issue_me       1
 9  3558 ind_issue_me       1
10  3625 ind_issue_me       1
# … with 5,271 more rows
```
…
```r
unvotes::un_roll_call_issues %>%
  select(-issue) %>%
  mutate(is_true = 1) %>%
  mutate(short_name = paste0("ind_issue_",
                             short_name)) %>%
* pivot_wider(names_from = short_name,
*             values_from = is_true)
```
]
 
.panel2-issues-auto[

```
# A tibble: 3,927 x 7
    rcid ind_issue_me ind_issue_nu ind_issue_di ind_issue_hr ind_issue_co
   <int>        <dbl>        <dbl>        <dbl>        <dbl>        <dbl>
 1  3372            1           NA           NA           NA           NA
 2  3658            1           NA           NA           NA           NA
 3  3692            1           NA           NA           NA            1
 4  2901            1           NA           NA           NA           NA
 5  3020            1           NA           NA           NA           NA
 6  3217            1           NA           NA           NA           NA
 7  3298            1           NA           NA           NA           NA
 8  3429            1           NA           NA           NA           NA
 9  3558            1           NA           NA           NA           NA
10  3625            1           NA           NA           NA           NA
# … with 3,917 more rows, and 1 more variable: ind_issue_ec <dbl>
```
…
.panel2-issues-auto[

```
# A tibble: 3,927 x 7
    rcid ind_issue_me ind_issue_nu ind_issue_di ind_issue_hr ind_issue_co
   <dbl>        <dbl>        <dbl>        <dbl>        <dbl>        <dbl>
 1  3372            1            0            0            0            0
 2  3658            1            0            0            0            0
 3  3692            1            0            0            0            1
 4  2901            1            0            0            0            0
 5  3020            1            0            0            0            0
 6  3217            1            0            0            0            0
 7  3298            1            0            0            0            0
 8  3429            1            0            0            0            0
 9  3558            1            0            0            0            0
10  3625            1            0            0            0            0
# … with 3,917 more rows, and 1 more variable: ind_issue_ec <dbl>
```
…
.panel2-issues-auto[

```
# A tibble: 3,927 x 7
   id_rollcall ind_issue_me ind_issue_nu ind_issue_di ind_issue_hr ind_issue_co
         <dbl>        <dbl>        <dbl>        <dbl>        <dbl>        <dbl>
 1        3372            1            0            0            0            0
 2        3658            1            0            0            0            0
 3        3692            1            0            0            0            1
 4        2901            1            0            0            0            0
 5        3020            1            0            0            0            0
 6        3217            1            0            0            0            0
 7        3298            1            0            0            0            0
 8        3429            1            0            0            0            0
 9        3558            1            0            0            0            0
10        3625            1            0            0            0            0
# … with 3,917 more rows, and 1 more variable: ind_issue_ec <dbl>
```
…
*unvotes::un_roll_call_issues
```
]
 
.panel2-issues-auto[

```
# A tibble: 5,281 x 3
    rcid short_name issue               
   <int> <chr>      <chr>               
 1  3372 me         Palestinian conflict
 2  3658 me         Palestinian conflict
 3  3692 me         Palestinian conflict
 4  2901 me         Palestinian conflict
 5  3020 me         Palestinian conflict
 6  3217 me         Palestinian conflict
 7  3298 me         Palestinian conflict
 8  3429 me         Palestinian conflict
 9  3558 me         Palestinian conflict
10  3625 me         Palestinian conflict
# … with 5,271 more rows
```
…
---

count: false

.panel1-votes-auto[

```r
*unvotes::un_votes
```
]
 
.panel2-votes-auto[

```
# A tibble: 738,764 x 4
    rcid country                  country_code vote 
   <int> <chr>                    <chr>        <fct>
 1     3 United States of America US           yes  
 2     3 Canada                   CA           no   
 3     3 Cuba                     CU           yes  
 4     3 Haiti                    HT           yes  
 5     3 Dominican Republic       DO           yes  
 6     3 Mexico                   MX           yes  
 7     3 Guatemala                GT           yes  
 8     3 Honduras                 HN           yes  
 9     3 El Salvador              SV           yes  
10     3 Nicaragua                NI           yes  
# … with 738,754 more rows
```
…
---
count: false

.panel1-votes-auto[

```r
unvotes::un_votes %>%
* distinct(country, country_code)
```
]
 
.panel2-votes-auto[

```
# A tibble: 200 x 2
   country                  country_code
   <chr>                    <chr>       
 1 United States of America US          
 2 Canada                   CA          
 3 Cuba                     CU          
 4 Haiti                    HT          
 5 Dominican Republic       DO          
 6 Mexico                   MX          
 7 Guatemala                GT          
 8 Honduras                 HN          
 9 El Salvador              SV          
10 Nicaragua                NI          
# … with 190 more rows
```
…
.panel1-votes-auto[

```r
unvotes::un_votes %>%
  distinct(country, country_code) %>%
* rename(id_country_code = country_code)
```
]
 
.panel2-votes-auto[

```
# A tibble: 200 x 2
   country                  id_country_code
   <chr>                    <chr>          
 1 United States of America US             
 2 Canada                   CA             
 3 Cuba                     CU             
 4 Haiti                    HT             
 5 Dominican Republic       DO             
 6 Mexico                   MX             
 7 Guatemala                GT             
 8 Honduras                 HN             
 9 El Salvador              SV             
10 Nicaragua                NI             
# … with 190 more rows
```
…
.panel1-votes-auto[

```r
unvotes::un_votes %>%
  distinct(country, country_code) %>%
  rename(id_country_code = country_code) %>%
* select(id_country_code, country)
```
]
 
.panel2-votes-auto[

```
# A tibble: 200 x 2
   id_country_code country                 
   <chr>           <chr>                   
 1 US              United States of America
 2 CA              Canada                  
 3 CU              Cuba                    
 4 HT              Haiti                   
 5 DO              Dominican Republic      
 6 MX              Mexico                  
 7 GT              Guatemala               
 8 HN              Honduras                
 9 SV              El Salvador             
10 NI              Nicaragua               
# … with 190 more rows
```
…
.panel1-votes-auto[

```r
unvotes::un_votes %>%
  distinct(country, country_code) %>%
  rename(id_country_code = country_code) %>%
  select(id_country_code, country) %>%
* arrange(id_country_code)
```
]
 
.panel2-votes-auto[

```
# A tibble: 200 x 2
   id_country_code country             
   <chr>           <chr>               
 1 AD              Andorra             
 2 AE              United Arab Emirates
 3 AF              Afghanistan         
 4 AG              Antigua and Barbuda 
 5 AL              Albania             
 6 AM              Armenia             
 7 AO              Angola              
 8 AR              Argentina           
 9 AT              Austria             
10 AU              Australia           
# … with 190 more rows
```
…
*unvotes::un_votes
```
]
 
.panel2-votes-auto[

```
# A tibble: 738,764 x 4
    rcid country                  country_code vote 
   <int> <chr>                    <chr>        <fct>
 1     3 United States of America US           yes  
 2     3 Canada                   CA           no   
 3     3 Cuba                     CU           yes  
 4     3 Haiti                    HT           yes  
 5     3 Dominican Republic       DO           yes  
 6     3 Mexico                   MX           yes  
 7     3 Guatemala                GT           yes  
 8     3 Honduras                 HN           yes  
 9     3 El Salvador              SV           yes  
10     3 Nicaragua                NI           yes  
# … with 738,754 more rows
```
…
unvotes::un_votes %>%
* rename(id_rollcall = rcid)
```
]
 
.panel2-votes-auto[

```
# A tibble: 738,764 x 4
   id_rollcall country                  country_code vote 
         <int> <chr>                    <chr>        <fct>
 1           3 United States of America US           yes  
 2           3 Canada                   CA           no   
 3           3 Cuba                     CU           yes  
 4           3 Haiti                    HT           yes  
 5           3 Dominican Republic       DO           yes  
 6           3 Mexico                   MX           yes  
 7           3 Guatemala                GT           yes  
 8           3 Honduras                 HN           yes  
 9           3 El Salvador              SV           yes  
10           3 Nicaragua                NI           yes  
# … with 738,754 more rows
```
…
unvotes::un_votes %>%
  rename(id_rollcall = rcid) %>%
* rename(id_country_cow = country_code)
```
]
 
.panel2-votes-auto[

```
# A tibble: 738,764 x 4
   id_rollcall country                  id_country_cow vote 
         <int> <chr>                    <chr>          <fct>
 1           3 United States of America US             yes  
 2           3 Canada                   CA             no   
 3           3 Cuba                     CU             yes  
 4           3 Haiti                    HT             yes  
 5           3 Dominican Republic       DO             yes  
 6           3 Mexico                   MX             yes  
 7           3 Guatemala                GT             yes  
 8           3 Honduras                 HN             yes  
 9           3 El Salvador              SV             yes  
10           3 Nicaragua                NI             yes  
# … with 738,754 more rows
```
…
unvotes::un_votes %>%
  rename(id_rollcall = rcid) %>%
  rename(id_country_cow = country_code) %>%
* rename(cat_vote = vote)
```
]
 
.panel2-votes-auto[

```
# A tibble: 738,764 x 4
   id_rollcall country                  id_country_cow cat_vote
         <int> <chr>                    <chr>          <fct>   
 1           3 United States of America US             yes     
 2           3 Canada                   CA             no      
 3           3 Cuba                     CU             yes     
 4           3 Haiti                    HT             yes     
 5           3 Dominican Republic       DO             yes     
 6           3 Mexico                   MX             yes     
 7           3 Guatemala                GT             yes     
 8           3 Honduras                 HN             yes     
 9           3 El Salvador              SV             yes     
10           3 Nicaragua                NI             yes     
# … with 738,754 more rows
```
…
unvotes::un_votes %>%
  rename(id_rollcall = rcid) %>%
  rename(id_country_cow = country_code) %>%
  rename(cat_vote = vote) %>%
* select(-country)
```
]
 
.panel2-votes-auto[

```
# A tibble: 738,764 x 3
   id_rollcall id_country_cow cat_vote
         <int> <chr>          <fct>   
 1           3 US             yes     
 2           3 CA             no      
 3           3 CU             yes     
 4           3 HT             yes     
 5           3 DO             yes     
 6           3 MX             yes     
 7           3 GT             yes     
 8           3 HN             yes     
 9           3 SV             yes     
10           3 NI             yes     
# … with 738,754 more rows
```
…
---

count: false

.panel1-rollcalls-auto[

```r
*unvotes::un_roll_calls
```
]
 
.panel2-rollcalls-auto[

```
# A tibble: 5,429 x 9
    rcid session importantvote date       unres  amend  para short   descr      
   <int>   <dbl>         <dbl> <date>     <chr>  <dbl> <dbl> <chr>   <chr>      
 1     3       1             0 1946-01-01 R/1/66     1     0 AMENDM… "TO ADOPT …
 2     4       1             0 1946-01-02 R/1/79     0     0 SECURI… "TO ADOPT …
 3     5       1             0 1946-01-04 R/1/98     0     0 VOTING… "TO ADOPT …
 4     6       1             0 1946-01-04 R/1/1…     0     0 DECLAR… "TO ADOPT …
 5     7       1             0 1946-01-02 R/1/2…     1     0 GENERA… "TO ADOPT …
 6     8       1             0 1946-01-05 R/1/2…     1     0 ECOSOC… "TO ADOPT …
 7     9       1             0 1946-02-05 R/1/3…     0     0 POST-W… "TO OPEN T…
 8    10       1             0 1946-02-05 R/1/3…     1     1 U.N. M… "TO ADOPT …
 9    11       1             0 1946-02-05 R/1/3…     0     0 TRUSTE… "TO ADOPT …
10    12       1             0 1946-02-06 R/1/3…     1     1 COUNCI… "TO ADOPT …
# … with 5,419 more rows
```
…
---
count: false

.panel1-rollcalls-auto[

```r
unvotes::un_roll_calls %>%
* rename(id_rollcall = rcid)
```
]
 
.panel2-rollcalls-auto[

```
# A tibble: 5,429 x 9
   id_rollcall session importantvote date       unres  amend  para short descr  
         <int>   <dbl>         <dbl> <date>     <chr>  <dbl> <dbl> <chr> <chr>  
 1           3       1             0 1946-01-01 R/1/66     1     0 AMEN… "TO AD…
 2           4       1             0 1946-01-02 R/1/79     0     0 SECU… "TO AD…
 3           5       1             0 1946-01-04 R/1/98     0     0 VOTI… "TO AD…
 4           6       1             0 1946-01-04 R/1/1…     0     0 DECL… "TO AD…
 5           7       1             0 1946-01-02 R/1/2…     1     0 GENE… "TO AD…
 6           8       1             0 1946-01-05 R/1/2…     1     0 ECOS… "TO AD…
 7           9       1             0 1946-02-05 R/1/3…     0     0 POST… "TO OP…
 8          10       1             0 1946-02-05 R/1/3…     1     1 U.N.… "TO AD…
 9          11       1             0 1946-02-05 R/1/3…     0     0 TRUS… "TO AD…
10          12       1             0 1946-02-06 R/1/3…     1     1 COUN… "TO AD…
# … with 5,419 more rows
```
…
