{glue}, paste, paste0, cat
…
```
[1] "hi bye"
```

```
[1] "hibye"
```

```
# A tibble: 1,704 x 6
   country     continent  year lifeExp      pop gdpPercap
   <fct>       <fct>     <int>   <dbl>    <int>     <dbl>
 1 Afghanistan Asia       1952    28.8  8425333      779.
 2 Afghanistan Asia       1957    30.3  9240934      821.
 3 Afghanistan Asia       1962    32.0 10267083      853.
 4 Afghanistan Asia       1967    34.0 11537966      836.
 5 Afghanistan Asia       1972    36.1 13079460      740.
 6 Afghanistan Asia       1977    38.4 14880372      786.
 7 Afghanistan Asia       1982    39.9 12881816      978.
 8 Afghanistan Asia       1987    40.8 13867957      852.
 9 Afghanistan Asia       1992    41.7 16317921      649.
10 Afghanistan Asia       1997    41.8 22227415      635.
# … with 1,694 more rows
```
…
*gapminder
```
]]
.column[.content[

```
[1] "hi bye"
```

```
[1] "hibye"
```

```
# A tibble: 1,704 x 6
   country     continent  year lifeExp      pop gdpPercap
   <fct>       <fct>     <int>   <dbl>    <int>     <dbl>
 1 Afghanistan Asia       1952    28.8  8425333      779.
 2 Afghanistan Asia       1957    30.3  9240934      821.
 3 Afghanistan Asia       1962    32.0 10267083      853.
 4 Afghanistan Asia       1967    34.0 11537966      836.
 5 Afghanistan Asia       1972    36.1 13079460      740.
 6 Afghanistan Asia       1977    38.4 14880372      786.
 7 Afghanistan Asia       1982    39.9 12881816      978.
 8 Afghanistan Asia       1987    40.8 13867957      852.
 9 Afghanistan Asia       1992    41.7 16317921      649.
10 Afghanistan Asia       1997    41.8 22227415      635.
# … with 1,694 more rows
```
…
```
[1] "hi bye"
```

```
[1] "hibye"
```

```
# A tibble: 142 x 6
   country     continent  year lifeExp       pop gdpPercap
   <fct>       <fct>     <int>   <dbl>     <int>     <dbl>
 1 Afghanistan Asia       2002    42.1  25268405      727.
 2 Albania     Europe     2002    75.7   3508512     4604.
 3 Algeria     Africa     2002    71.0  31287142     5288.
 4 Angola      Africa     2002    41.0  10866106     2773.
 5 Argentina   Americas   2002    74.3  38331121     8798.
 6 Australia   Oceania    2002    80.4  19546792    30688.
 7 Austria     Europe     2002    79.0   8148312    32418.
 8 Bahrain     Asia       2002    74.8    656397    23404.
 9 Bangladesh  Asia       2002    62.0 135656790     1136.
10 Belgium     Europe     2002    78.3  10311970    30486.
# … with 132 more rows
```
…
```
[1] "hi bye"
```

```
[1] "hibye"
```

```
# A tibble: 142 x 2
   continent country    
   <fct>     <fct>      
 1 Asia      Afghanistan
 2 Europe    Albania    
 3 Africa    Algeria    
 4 Africa    Angola     
 5 Americas  Argentina  
 6 Oceania   Australia  
 7 Europe    Austria    
 8 Asia      Bahrain    
 9 Asia      Bangladesh 
10 Europe    Belgium    
# … with 132 more rows
```
…
```
[1] "hi bye"
```

```
[1] "hibye"
```

```
# A tibble: 142 x 3
   continent country     both               
   <fct>     <fct>       <chr>              
 1 Asia      Afghanistan Asia: Afghanistan  
 2 Europe    Albania     Europe: Albania    
 3 Africa    Algeria     Africa: Algeria    
 4 Africa    Angola      Africa: Angola     
 5 Americas  Argentina   Americas: Argentina
 6 Oceania   Australia   Oceania: Australia 
 7 Europe    Austria     Europe: Austria    
 8 Asia      Bahrain     Asia: Bahrain      
 9 Asia      Bangladesh  Asia: Bangladesh   
10 Europe    Belgium     Europe: Belgium    
# … with 132 more rows
```
…
