purrr flipbook
…
```r
# linear modeling function
mod_fun <- function(df) lm(Sepal.Length ~ ., data = df)  
# returns coefficients of the model
b_fun <- function(mod) coefficients(mod)[[1]]  
iris %>%  
* group_by(Species)
```
]
 
.right-panel-list_column_workflow-auto[

```
  # A tibble: 150 x 5
  # Groups:   Species [3]
     Sepal.Length Sepal.Width Petal.Length Petal.Width Species
            <dbl>       <dbl>        <dbl>       <dbl> <fct>  
   1          5.1         3.5          1.4         0.2 setosa 
   2          4.9         3            1.4         0.2 setosa 
   3          4.7         3.2          1.3         0.2 setosa 
   4          4.6         3.1          1.5         0.2 setosa 
   5          5           3.6          1.4         0.2 setosa 
   6          5.4         3.9          1.7         0.4 setosa 
   7          4.6         3.4          1.4         0.3 setosa 
   8          5           3.4          1.5         0.2 setosa 
   9          4.4         2.9          1.4         0.2 setosa 
  10          4.9         3.1          1.5         0.1 setosa 
  # … with 140 more rows
```
…
  Coefficients:
   (Intercept)   Sepal.Width  Petal.Length   Petal.Width  
        0.6999        0.3303        0.9455       -0.1698
```

---

# Looking at an element in a list-column

```r
iris_mods$data[[3]]
```

```
  # A tibble: 50 x 4
     Sepal.Length Sepal.Width Petal.Length Petal.Width
            <dbl>       <dbl>        <dbl>       <dbl>
   1          6.3         3.3          6           2.5
   2          5.8         2.7          5.1         1.9
   3          7.1         3            5.9         2.1
   4          6.3         2.9          5.6         1.8
   5          6.5         3            5.8         2.2
   6          7.6         3            6.6         2.1
   7          4.9         2.5          4.5         1.7
   8          7.3         2.9          6.3         1.8
   9          6.7         2.5          5.8         1.8
  10          7.2         3.6          6.1         2.5
  # … with 40 more rows
```
…
---

```r
mtcars %>% 
  select(mpg, cyl) %>% 
  distinct() %>% 
  mutate(seq = map(cyl, seq)) %>% 
  unnest()
```

```
  # A tibble: 168 x 3
       mpg   cyl   seq
     <dbl> <dbl> <int>
   1  21       6     1
   2  21       6     2
   3  21       6     3
   4  21       6     4
   5  21       6     5
   6  21       6     6
   7  22.8     4     1
   8  22.8     4     2
   9  22.8     4     3
  10  22.8     4     4
  # … with 158 more rows
```
…
```r
iris %>% 
  group_by(Species) %>% 
  nest() %>%
  mutate(model = map(data, mod_fun))  %>% 
  mutate(n = map2(data, model, list)) ->
iris_more_mod

iris_more_mod$n
```

```
  [[1]]
  [[1]][[1]]
  # A tibble: 50 x 4
     Sepal.Length Sepal.Width Petal.Length Petal.Width
            <dbl>       <dbl>        <dbl>       <dbl>
   1          5.1         3.5          1.4         0.2
   2          4.9         3            1.4         0.2
   3          4.7         3.2          1.3         0.2
   4          4.6         3.1          1.5         0.2
   5          5           3.6          1.4         0.2
   6          5.4         3.9          1.7         0.4
   7          4.6         3.4          1.4         0.3
   8          5           3.4          1.5         0.2
   9          4.4         2.9          1.4         0.2
  10          4.9         3.1          1.5         0.1
  # … with 40 more rows
  
  [[1]][[2]]
  
  Call:
  lm(formula = Sepal.Length ~ ., data = df)
  
  Coefficients:
   (Intercept)   Sepal.Width  Petal.Length   Petal.Width  
        2.3519        0.6548        0.2376        0.2521  

  [[2]]
  [[2]][[1]]
  # A tibble: 50 x 4
     Sepal.Length Sepal.Width Petal.Length Petal.Width
            <dbl>       <dbl>        <dbl>       <dbl>
   1          7           3.2          4.7         1.4
   2          6.4         3.2          4.5         1.5
   3          6.9         3.1          4.9         1.5
   4          5.5         2.3          4           1.3
   5          6.5         2.8          4.6         1.5
   6          5.7         2.8          4.5         1.3
   7          6.3         3.3          4.7         1.6
   8          4.9         2.4          3.3         1  
   9          6.6         2.9          4.6         1.3
  10          5.2         2.7          3.9         1.4
  # … with 40 more rows
  
  [[2]][[2]]
  
  Call:
  lm(formula = Sepal.Length ~ ., data = df)
  
  Coefficients:
   (Intercept)   Sepal.Width  Petal.Length   Petal.Width  
        1.8955        0.3869        0.9083       -0.6792  

  [[3]]
  [[3]][[1]]
  # A tibble: 50 x 4
     Sepal.Length Sepal.Width Petal.Length Petal.Width
            <dbl>       <dbl>        <dbl>       <dbl>
   1          6.3         3.3          6           2.5
   2          5.8         2.7          5.1         1.9
   3          7.1         3            5.9         2.1
   4          6.3         2.9          5.6         1.8
   5          6.5         3            5.8         2.2
   6          7.6         3            6.6         2.1
   7          4.9         2.5          4.5         1.7
   8          7.3         2.9          6.3         1.8
   9          6.7         2.5          5.8         1.8
  10          7.2         3.6          6.1         2.5
  # … with 40 more rows
…
```r
iris %>% 
  group_by(Species) %>% 
  nest() %>%
  mutate(model = map(data, mod_fun)) %>%
  mutate(n = pmap(list(data, model, data), list)) ->
more_manipulations

more_manipulations$n
```

```
  [[1]]
  [[1]][[1]]
  # A tibble: 50 x 4
     Sepal.Length Sepal.Width Petal.Length Petal.Width
            <dbl>       <dbl>        <dbl>       <dbl>
   1          5.1         3.5          1.4         0.2
   2          4.9         3            1.4         0.2
   3          4.7         3.2          1.3         0.2
   4          4.6         3.1          1.5         0.2
   5          5           3.6          1.4         0.2
   6          5.4         3.9          1.7         0.4
   7          4.6         3.4          1.4         0.3
   8          5           3.4          1.5         0.2
   9          4.4         2.9          1.4         0.2
  10          4.9         3.1          1.5         0.1
  # … with 40 more rows
  
  [[1]][[2]]
  
  Call:
  lm(formula = Sepal.Length ~ ., data = df)
  
  Coefficients:
   (Intercept)   Sepal.Width  Petal.Length   Petal.Width  
        2.3519        0.6548        0.2376        0.2521  

  [[1]][[3]]
  # A tibble: 50 x 4
     Sepal.Length Sepal.Width Petal.Length Petal.Width
            <dbl>       <dbl>        <dbl>       <dbl>
   1          5.1         3.5          1.4         0.2
   2          4.9         3            1.4         0.2
   3          4.7         3.2          1.3         0.2
   4          4.6         3.1          1.5         0.2
   5          5           3.6          1.4         0.2
   6          5.4         3.9          1.7         0.4
   7          4.6         3.4          1.4         0.3
   8          5           3.4          1.5         0.2
   9          4.4         2.9          1.4         0.2
  10          4.9         3.1          1.5         0.1
  # … with 40 more rows

  [[2]]
  [[2]][[1]]
  # A tibble: 50 x 4
     Sepal.Length Sepal.Width Petal.Length Petal.Width
            <dbl>       <dbl>        <dbl>       <dbl>
   1          7           3.2          4.7         1.4
   2          6.4         3.2          4.5         1.5
   3          6.9         3.1          4.9         1.5
   4          5.5         2.3          4           1.3
   5          6.5         2.8          4.6         1.5
   6          5.7         2.8          4.5         1.3
   7          6.3         3.3          4.7         1.6
   8          4.9         2.4          3.3         1  
   9          6.6         2.9          4.6         1.3
  10          5.2         2.7          3.9         1.4
  # … with 40 more rows
  
  [[2]][[2]]
  
  Call:
  lm(formula = Sepal.Length ~ ., data = df)
  
  Coefficients:
   (Intercept)   Sepal.Width  Petal.Length   Petal.Width  
        1.8955        0.3869        0.9083       -0.6792  

  [[2]][[3]]
  # A tibble: 50 x 4
     Sepal.Length Sepal.Width Petal.Length Petal.Width
            <dbl>       <dbl>        <dbl>       <dbl>
   1          7           3.2          4.7         1.4
   2          6.4         3.2          4.5         1.5
   3          6.9         3.1          4.9         1.5
   4          5.5         2.3          4           1.3
   5          6.5         2.8          4.6         1.5
   6          5.7         2.8          4.5         1.3
   7          6.3         3.3          4.7         1.6
   8          4.9         2.4          3.3         1  
   9          6.6         2.9          4.6         1.3
  10          5.2         2.7          3.9         1.4
  # … with 40 more rows

  [[3]]
  [[3]][[1]]
  # A tibble: 50 x 4
     Sepal.Length Sepal.Width Petal.Length Petal.Width
            <dbl>       <dbl>        <dbl>       <dbl>
   1          6.3         3.3          6           2.5
   2          5.8         2.7          5.1         1.9
   3          7.1         3            5.9         2.1
   4          6.3         2.9          5.6         1.8
   5          6.5         3            5.8         2.2
   6          7.6         3            6.6         2.1
   7          4.9         2.5          4.5         1.7
   8          7.3         2.9          6.3         1.8
   9          6.7         2.5          5.8         1.8
  10          7.2         3.6          6.1         2.5
  # … with 40 more rows
  
  [[3]][[2]]
  
  Call:
  lm(formula = Sepal.Length ~ ., data = df)
  
  Coefficients:
   (Intercept)   Sepal.Width  Petal.Length   Petal.Width  
        0.6999        0.3303        0.9455       -0.1698  

  [[3]][[3]]
  # A tibble: 50 x 4
     Sepal.Length Sepal.Width Petal.Length Petal.Width
            <dbl>       <dbl>        <dbl>       <dbl>
   1          6.3         3.3          6           2.5
   2          5.8         2.7          5.1         1.9
   3          7.1         3            5.9         2.1
   4          6.3         2.9          5.6         1.8
   5          6.5         3            5.8         2.2
   6          7.6         3            6.6         2.1
   7          4.9         2.5          4.5         1.7
   8          7.3         2.9          6.3         1.8
   9          6.7         2.5          5.8         1.8
  10          7.2         3.6          6.1         2.5
  # … with 40 more rows
```
…
