summarize
…
---

count: false

.panel1-a_few_more-auto[

```r
*gapminder
```
]
 
.panel2-a_few_more-auto[

```
# A tibble: 1,704 x 6
   country     continent  year lifeExp      pop gdpPercap
   <fct>       <fct>     <int>   <dbl>    <int>     <dbl>
 1 Afghanistan Asia       1952    28.8  8425333      779.
 2 Afghanistan Asia       1957    30.3  9240934      821.
 3 Afghanistan Asia       1962    32.0 10267083      853.
 4 Afghanistan Asia       1967    34.0 11537966      836.
 5 Afghanistan Asia       1972    36.1 13079460      740.
 6 Afghanistan Asia       1977    38.4 14880372      786.
 7 Afghanistan Asia       1982    39.9 12881816      978.
 8 Afghanistan Asia       1987    40.8 13867957      852.
 9 Afghanistan Asia       1992    41.7 16317921      649.
10 Afghanistan Asia       1997    41.8 22227415      635.
# … with 1,694 more rows
```
…
---
count: false

.panel1-a_few_more-auto[

```r
gapminder %>%
* mutate(num_rows = n())
```
]
 
.panel2-a_few_more-auto[

```
# A tibble: 1,704 x 7
   country     continent  year lifeExp      pop gdpPercap num_rows
   <fct>       <fct>     <int>   <dbl>    <int>     <dbl>    <int>
 1 Afghanistan Asia       1952    28.8  8425333      779.     1704
 2 Afghanistan Asia       1957    30.3  9240934      821.     1704
 3 Afghanistan Asia       1962    32.0 10267083      853.     1704
 4 Afghanistan Asia       1967    34.0 11537966      836.     1704
 5 Afghanistan Asia       1972    36.1 13079460      740.     1704
 6 Afghanistan Asia       1977    38.4 14880372      786.     1704
 7 Afghanistan Asia       1982    39.9 12881816      978.     1704
 8 Afghanistan Asia       1987    40.8 13867957      852.     1704
 9 Afghanistan Asia       1992    41.7 16317921      649.     1704
10 Afghanistan Asia       1997    41.8 22227415      635.     1704
# … with 1,694 more rows
```
…
```r
gapminder %>%
  mutate(num_rows = n()) ->
gap_n

# a pipeline to count the number
# of observations by group
*gapminder
```
]
 
.panel2-a_few_more-auto[

```
# A tibble: 1,704 x 6
   country     continent  year lifeExp      pop gdpPercap
   <fct>       <fct>     <int>   <dbl>    <int>     <dbl>
 1 Afghanistan Asia       1952    28.8  8425333      779.
 2 Afghanistan Asia       1957    30.3  9240934      821.
 3 Afghanistan Asia       1962    32.0 10267083      853.
 4 Afghanistan Asia       1967    34.0 11537966      836.
 5 Afghanistan Asia       1972    36.1 13079460      740.
 6 Afghanistan Asia       1977    38.4 14880372      786.
 7 Afghanistan Asia       1982    39.9 12881816      978.
 8 Afghanistan Asia       1987    40.8 13867957      852.
 9 Afghanistan Asia       1992    41.7 16317921      649.
10 Afghanistan Asia       1997    41.8 22227415      635.
# … with 1,694 more rows
```
…
# a pipeline to count the number
# of observations by group
gapminder %>%
* distinct(country, continent)
```
]
 
.panel2-a_few_more-auto[

```
# A tibble: 142 x 2
   country     continent
   <fct>       <fct>    
 1 Afghanistan Asia     
 2 Albania     Europe   
 3 Algeria     Africa   
 4 Angola      Africa   
 5 Argentina   Americas 
 6 Australia   Oceania  
 7 Austria     Europe   
 8 Bahrain     Asia     
 9 Bangladesh  Asia     
10 Belgium     Europe   
# … with 132 more rows
```
…
# alternatively use n function
*gapminder
```
]
 
.panel2-a_few_more-auto[

```
# A tibble: 1,704 x 6
   country     continent  year lifeExp      pop gdpPercap
   <fct>       <fct>     <int>   <dbl>    <int>     <dbl>
 1 Afghanistan Asia       1952    28.8  8425333      779.
 2 Afghanistan Asia       1957    30.3  9240934      821.
 3 Afghanistan Asia       1962    32.0 10267083      853.
 4 Afghanistan Asia       1967    34.0 11537966      836.
 5 Afghanistan Asia       1972    36.1 13079460      740.
 6 Afghanistan Asia       1977    38.4 14880372      786.
 7 Afghanistan Asia       1982    39.9 12881816      978.
 8 Afghanistan Asia       1987    40.8 13867957      852.
 9 Afghanistan Asia       1992    41.7 16317921      649.
10 Afghanistan Asia       1997    41.8 22227415      635.
# … with 1,694 more rows
```
…
# alternatively use n function
gapminder %>%
* distinct(country, continent)
```
]
 
.panel2-a_few_more-auto[

```
# A tibble: 142 x 2
   country     continent
   <fct>       <fct>    
 1 Afghanistan Asia     
 2 Albania     Europe   
 3 Algeria     Africa   
 4 Angola      Africa   
 5 Argentina   Americas 
 6 Australia   Oceania  
 7 Austria     Europe   
 8 Bahrain     Asia     
 9 Bangladesh  Asia     
10 Belgium     Europe   
# … with 132 more rows
```
…
# alternatively use n function
gapminder %>%
  distinct(country, continent) %>%
# tally and count are the same
* group_by(continent)
```
]
 
.panel2-a_few_more-auto[

```
# A tibble: 142 x 2
# Groups:   continent [5]
   country     continent
   <fct>       <fct>    
 1 Afghanistan Asia     
 2 Albania     Europe   
 3 Algeria     Africa   
 4 Angola      Africa   
 5 Argentina   Americas 
 6 Australia   Oceania  
 7 Austria     Europe   
 8 Bahrain     Asia     
 9 Bangladesh  Asia     
10 Belgium     Europe   
# … with 132 more rows
```
…
count: false

.panel1-more-auto[

```r
# a pipeline to create overall
# variable summaries
*gapminder
```
]
 
.panel2-more-auto[

```
# A tibble: 1,704 x 6
   country     continent  year lifeExp      pop gdpPercap
   <fct>       <fct>     <int>   <dbl>    <int>     <dbl>
 1 Afghanistan Asia       1952    28.8  8425333      779.
 2 Afghanistan Asia       1957    30.3  9240934      821.
 3 Afghanistan Asia       1962    32.0 10267083      853.
 4 Afghanistan Asia       1967    34.0 11537966      836.
 5 Afghanistan Asia       1972    36.1 13079460      740.
 6 Afghanistan Asia       1977    38.4 14880372      786.
 7 Afghanistan Asia       1982    39.9 12881816      978.
 8 Afghanistan Asia       1987    40.8 13867957      852.
 9 Afghanistan Asia       1992    41.7 16317921      649.
10 Afghanistan Asia       1997    41.8 22227415      635.
# … with 1,694 more rows
```
…
.panel1-more-auto[

```r
# a pipeline to create overall
# variable summaries
gapminder %>%
* filter(year == 2002)
```
]
 
.panel2-more-auto[

```
# A tibble: 142 x 6
   country     continent  year lifeExp       pop gdpPercap
   <fct>       <fct>     <int>   <dbl>     <int>     <dbl>
 1 Afghanistan Asia       2002    42.1  25268405      727.
 2 Albania     Europe     2002    75.7   3508512     4604.
 3 Algeria     Africa     2002    71.0  31287142     5288.
 4 Angola      Africa     2002    41.0  10866106     2773.
 5 Argentina   Americas   2002    74.3  38331121     8798.
 6 Australia   Oceania    2002    80.4  19546792    30688.
 7 Austria     Europe     2002    79.0   8148312    32418.
 8 Bahrain     Asia       2002    74.8    656397    23404.
 9 Bangladesh  Asia       2002    62.0 135656790     1136.
10 Belgium     Europe     2002    78.3  10311970    30486.
# … with 132 more rows
```
…
# a pipeline to create groupwise
# variable summaries
*gapminder
```
]
 
.panel2-more-auto[

```
# A tibble: 1,704 x 6
   country     continent  year lifeExp      pop gdpPercap
   <fct>       <fct>     <int>   <dbl>    <int>     <dbl>
 1 Afghanistan Asia       1952    28.8  8425333      779.
 2 Afghanistan Asia       1957    30.3  9240934      821.
 3 Afghanistan Asia       1962    32.0 10267083      853.
 4 Afghanistan Asia       1967    34.0 11537966      836.
 5 Afghanistan Asia       1972    36.1 13079460      740.
 6 Afghanistan Asia       1977    38.4 14880372      786.
 7 Afghanistan Asia       1982    39.9 12881816      978.
 8 Afghanistan Asia       1987    40.8 13867957      852.
 9 Afghanistan Asia       1992    41.7 16317921      649.
10 Afghanistan Asia       1997    41.8 22227415      635.
# … with 1,694 more rows
```
…
# a pipeline to create groupwise
# variable summaries
gapminder %>%
* filter(year == 2002)
```
]
 
.panel2-more-auto[

```
# A tibble: 142 x 6
   country     continent  year lifeExp       pop gdpPercap
   <fct>       <fct>     <int>   <dbl>     <int>     <dbl>
 1 Afghanistan Asia       2002    42.1  25268405      727.
 2 Albania     Europe     2002    75.7   3508512     4604.
 3 Algeria     Africa     2002    71.0  31287142     5288.
 4 Angola      Africa     2002    41.0  10866106     2773.
 5 Argentina   Americas   2002    74.3  38331121     8798.
 6 Australia   Oceania    2002    80.4  19546792    30688.
 7 Austria     Europe     2002    79.0   8148312    32418.
 8 Bahrain     Asia       2002    74.8    656397    23404.
 9 Bangladesh  Asia       2002    62.0 135656790     1136.
10 Belgium     Europe     2002    78.3  10311970    30486.
# … with 132 more rows
```
…
# a pipeline to create groupwise
# variable summaries
gapminder %>%
  filter(year == 2002) %>%
* group_by(continent)
```
]
 
.panel2-more-auto[

```
# A tibble: 142 x 6
# Groups:   continent [5]
   country     continent  year lifeExp       pop gdpPercap
   <fct>       <fct>     <int>   <dbl>     <int>     <dbl>
 1 Afghanistan Asia       2002    42.1  25268405      727.
 2 Albania     Europe     2002    75.7   3508512     4604.
 3 Algeria     Africa     2002    71.0  31287142     5288.
 4 Angola      Africa     2002    41.0  10866106     2773.
 5 Argentina   Americas   2002    74.3  38331121     8798.
 6 Australia   Oceania    2002    80.4  19546792    30688.
 7 Austria     Europe     2002    79.0   8148312    32418.
 8 Bahrain     Asia       2002    74.8    656397    23404.
 9 Bangladesh  Asia       2002    62.0 135656790     1136.
10 Belgium     Europe     2002    78.3  10311970    30486.
# … with 132 more rows
```
…
